%YAML 1.1
%TAG !u! tag:unity3d.com,2011:
--- !u!78 &1
TagManager:
  serializedVersion: 2
  tags:
  - Enemies
  - Walls
  layers:
  - Default
  - TransparentFX
  - Ignore Raycast
  - Enemies
  - Water
  - UI
  - Player
  - Walls
  - 
  - 
  - 
  - 
  - 
  - 
  - 
  - 
  - 
  - 
  - 
  - 
  - 
  - 
  - 
  - 
  - 
  - 
  - 
  - 
  - 
  - 
  - 
  - 
  m_SortingLayers:
  - name: Background
    uniqueID: 777319367
    locked: 0
  - name: FondoPlataformas
    uniqueID: 3498227417
    locked: 0
  - name: Default
    uniqueID: 0
    locked: 0
  - name: Enemies
    uniqueID: 2576140223
    locked: 0
  - name: Player
    uniqueID: 4022547537
    locked: 0
  - name: UI
    uniqueID: 2466998265
    locked: 0
